iverilog/full_adder_4bit.vcd
$date
	Sun May 31 16:26:12 2026
$end
$version
	Icarus Verilog
$end
$timescale
	1ps
$end
$scope module full_adder_4bit_tb $end
$var wire 1 ! VGND $end
$var wire 1 " VPWR $end
$var wire 4 # Sum [3:0] $end
$var wire 1 $ Cout $end
$var reg 4 % A [3:0] $end
$var reg 4 & B [3:0] $end
$var reg 1 ' Cin $end
$var reg 5 ( expected [4:0] $end
$var integer 32 ) error_count [31:0] $end
$var integer 32 * i [31:0] $end
$var integer 32 + j [31:0] $end
$var integer 32 , k [31:0] $end
$scope module uut $end
$var wire 1 - A0 $end
$var wire 1 . A1 $end
$var wire 1 / A2 $end
$var wire 1 0 A3 $end
$var wire 1 1 B0 $end
$var wire 1 2 B1 $end
$var wire 1 3 B2 $end
$var wire 1 4 B3 $end
$var wire 1 ' CIN $end
$var wire 1 5 net3 $end
$var wire 1 6 net2 $end
$var wire 1 7 net1 $end
$var wire 1 8 S3 $end
$var wire 1 9 S2 $end
$var wire 1 : S1 $end
$var wire 1 ; S0 $end
$var wire 1 $ COUT $end
$scope module x1 $end
$var wire 1 - A $end
$var wire 1 1 B $end
$var wire 1 ' CIN $end
$var wire 1 7 COUT $end
$var wire 1 ; SUM $end
$var wire 1 < VGND $end
$var wire 1 = VNB $end
$var wire 1 > VPB $end
$var wire 1 ? VPWR $end
$var wire 1 @ and0_out $end
$var wire 1 A and1_out $end
$var wire 1 B and2_out $end
$var wire 1 C nor0_out $end
$var wire 1 D nor1_out $end
$var wire 1 E or0_out $end
$var wire 1 F or1_out_COUT $end
$var wire 1 G or2_out_SUM $end
$upscope $end
$scope module x2 $end
$var wire 1 . A $end
$var wire 1 2 B $end
$var wire 1 7 CIN $end
$var wire 1 6 COUT $end
$var wire 1 : SUM $end
$var wire 1 H VGND $end
$var wire 1 I VNB $end
$var wire 1 J VPB $end
$var wire 1 K VPWR $end
$var wire 1 L and0_out $end
$var wire 1 M and1_out $end
$var wire 1 N and2_out $end
$var wire 1 O nor0_out $end
$var wire 1 P nor1_out $end
$var wire 1 Q or0_out $end
$var wire 1 R or1_out_COUT $end
$var wire 1 S or2_out_SUM $end
$upscope $end
$scope module x3 $end
$var wire 1 / A $end
$var wire 1 3 B $end
$var wire 1 6 CIN $end
$var wire 1 5 COUT $end
$var wire 1 9 SUM $end
$var wire 1 T VGND $end
$var wire 1 U VNB $end
$var wire 1 V VPB $end
$var wire 1 W VPWR $end
$var wire 1 X and0_out $end
$var wire 1 Y and1_out $end
$var wire 1 Z and2_out $end
$var wire 1 [ nor0_out $end
$var wire 1 \ nor1_out $end
$var wire 1 ] or0_out $end
$var wire 1 ^ or1_out_COUT $end
$var wire 1 _ or2_out_SUM $end
$upscope $end
$scope module x4 $end
$var wire 1 0 A $end
$var wire 1 4 B $end
$var wire 1 5 CIN $end
$var wire 1 $ COUT $end
$var wire 1 8 SUM $end
$var wire 1 ` VGND $end
$var wire 1 a VNB $end
$var wire 1 b VPB $end
$var wire 1 c VPWR $end
$var wire 1 d and0_out $end
$var wire 1 e and1_out $end
$var wire 1 f and2_out $end
$var wire 1 g nor0_out $end
$var wire 1 h nor1_out $end
$var wire 1 i or0_out $end
$var wire 1 j or1_out_COUT $end
$var wire 1 k or2_out_SUM $end
$upscope $end
$upscope $end
$upscope $end
$enddefinitions $end
#0
$dumpvars
0k
0j
0i
0h
1g
0f
0e
0d
1c
1b
0a
0`
0_
0^
0]
0\
1[
0Z
0Y
0X
1W
1V
0U
0T
0S
0R
0Q
0P
1O
0N
0M
0L
1K
1J
0I
0H
0G
0F
0E
0D
1C
0B
0A
0@
1?
1>
0=
0<
0;
0:
09
08
07
06
05
04
03
02
01
00
0/
0.
0-
b0 ,
b0 +
b0 *
b0 )
bx (
0'
b0 &
b0 %
0$
b0 #
1"
0!
$end
#1000
b1 #
1;
1G
1D
0C
1E
1'
b1 ,
b0 (
#2000
11
0'
b1 &
b1 +
b0 ,
b1 (
#3000
1:
1S
b10 #
0;
1P
0G
0O
0D
1Q
17
1F
1A
1'
b1 ,
#4000
09
0_
b10 #
1:
0\
1S
1[
1P
0]
06
07
0R
1C
0F
0M
0E
0A
01
12
0'
b10 &
b10 +
b0 ,
b10 (
#5000
b11 #
1;
1G
1D
0C
1E
1'
b1 ,
#6000
11
0'
b11 &
b11 +
b0 ,
b11 (
#7000
19
1_
0:
1\
0S
0[
0P
1]
b100 #
0;
16
0G
1R
0D
1M
17
1F
1A
1'
b1 ,
#8000
08
0k
0:
b100 #
19
0h
0S
1_
1g
1O
0P
1\
0i
0Q
06
05
07
0R
0^
1C
0F
0M
0Y
0E
0A
01
02
13
0'
b100 &
b100 +
b0 ,
b100 (
#9000
b101 #
1;
1G
1D
0C
1E
1'
b1 ,
#10000
11
0'
b101 &
b101 +
b0 ,
b101 (
#11000
1:
1S
b110 #
0;
1P
0G
0O
0D
1Q
17
1F
1A
1'
b1 ,
#12000
08
0k
19
0h
1_
1g
1\
0i
b110 #
1:
05
1S
0^
1P
0Y
06
07
0R
1C
0F
0M
0E
0A
01
12
0'
b110 &
b110 +
b0 ,
b110 (
#13000
b111 #
1;
1G
1D
0C
1E
1'
b1 ,
#14000
11
0'
b111 &
b111 +
b0 ,
b111 (
#15000
18
1k
09
1h
0_
0g
0\
1i
0:
15
0S
1^
0P
1Y
b1000 #
0;
16
0G
1R
0D
1M
17
1F
1A
1'
b1 ,
#16000
0:
09
b1000 #
18
0S
1[
0_
1k
1O
0P
0]
0\
1h
0Q
06
05
0$
07
0R
0^
0j
1C
0F
0M
0Y
0e
0E
0A
01
02
03
14
0'
b1000 &
b1000 +
b0 ,
b1000 (
#17000
b1001 #
1;
1G
1D
0C
1E
1'
b1 ,
#18000
11
0'
b1001 &
b1001 +
b0 ,
b1001 (
#19000
1:
1S
b1010 #
0;
1P
0G
0O
0D
1Q
17
1F
1A
1'
b1 ,
#20000
09
0_
b1010 #
1:
0\
1S
1[
1P
0]
06
07
0R
1C
0F
0M
0E
0A
01
12
0'
b1010 &
b1010 +
b0 ,
b1010 (
#21000
b1011 #
1;
1G
1D
0C
1E
1'
b1 ,
#22000
11
0'
b1011 &
b1011 +
b0 ,
b1011 (
#23000
19
1_
0:
1\
0S
0[
0P
1]
b1100 #
0;
16
0G
1R
0D
1M
17
1F
1A
1'
b1 ,
#24000
18
1k
1h
0:
b1100 #
19
0$
0S
1_
0j
1O
0P
1\
0e
0Q
06
05
07
0R
0^
1C
0F
0M
0Y
0E
0A
01
02
13
0'
b1100 &
b1100 +
b0 ,
b1100 (
#25000
b1101 #
1;
1G
1D
0C
1E
1'
b1 ,
#26000
11
0'
b1101 &
b1101 +
b0 ,
b1101 (
#27000
1:
1S
b1110 #
0;
1P
0G
0O
0D
1Q
17
1F
1A
1'
b1 ,
#28000
18
1k
1h
19
0$
1_
0j
1\
0e
b1110 #
1:
05
1S
0^
1P
0Y
06
07
0R
1C
0F
0M
0E
0A
01
12
0'
b1110 &
b1110 +
b0 ,
b1110 (
#29000
b1111 #
1;
1G
1D
0C
1E
1'
b1 ,
#30000
11
0'
b1111 &
b1111 +
b0 ,
b1111 (
#31000
08
0k
0h
09
1$
0_
1j
0\
1e
0:
15
0S
1^
0P
1Y
b0 #
0;
16
0G
1R
0D
1M
17
1F
1A
1'
b1 ,
#32000
0:
09
08
b1 #
1;
0S
1[
0_
1g
0k
1G
1O
0P
0]
0\
0i
0h
1D
0Q
06
05
0$
07
0R
0^
0j
0F
0M
0Y
0e
0E
0A
01
02
03
04
1-
0'
b0 &
b1 %
b1 *
b0 +
b0 ,
b10000 (
#33000
1:
1S
b10 #
0;
1P
0G
0O
0D
1Q
17
1F
1@
1E
1'
b1 ,
b1 (
#34000
11
0'
b1 &
b1 +
b0 ,
b10 (
#35000
b11 #
1;
1G
1A
1B
1'
b1 ,
#36000
09
0_
1:
0\
1S
1[
1D
1P
0]
07
06
0F
b11 #
1;
0R
0@
1G
0M
0E
0A
0B
01
12
0'
b10 &
b10 +
b0 ,
b11 (
#37000
19
1_
0:
1\
0S
0[
0P
1]
b100 #
0;
16
0G
1R
0D
1M
17
1F
1@
1E
1'
b1 ,
#38000
11
0'
b11 &
b11 +
b0 ,
b100 (
#39000
b101 #
1;
1G
1A
1B
1'
b1 ,
#40000
08
0k
0:
19
0h
1O
0S
1_
1g
1D
0Q
0P
1\
0i
07
06
05
0F
b101 #
1;
0R
0^
0@
1G
0M
0Y
0E
0A
0B
01
02
13
0'
b100 &
b100 +
b0 ,
b101 (
#41000
1:
1S
b110 #
0;
1P
0G
0O
0D
1Q
17
1F
1@
1E
1'
b1 ,
#42000
11
0'
b101 &
b101 +
b0 ,
b110 (
#43000
b111 #
1;
1G
1A
1B
1'
b1 ,
#44000
08
0k
19
0h
1_
1g
1\
0i
1:
05
1S
0^
1D
1P
0Y
07
06
0F
b111 #
1;
0R
0@
1G
0M
0E
0A
0B
01
12
0'
b110 &
b110 +
b0 ,
b111 (
#45000
18
1k
09
1h
0_
0g
0\
1i
0:
15
0S
1^
0P
1Y
b1000 #
0;
16
0G
1R
0D
1M
17
1F
1@
1E
1'
b1 ,
#46000
11
0'
b111 &
b111 +
b0 ,
b1000 (
#47000
b1001 #
1;
1G
1A
1B
1'
b1 ,
#48000
0:
09
18
1O
0S
1[
0_
1k
1D
0Q
0P
0]
0\
1h
07
06
05
0$
0F
b1001 #
1;
0R
0^
0j
0@
1G
0M
0Y
0e
0E
0A
0B
01
02
03
14
0'
b1000 &
b1000 +
b0 ,
b1001 (
#49000
1:
1S
b1010 #
0;
1P
0G
0O
0D
1Q
17
1F
1@
1E
1'
b1 ,
#50000
11
0'
b1001 &
b1001 +
b0 ,
b1010 (
#51000
b1011 #
1;
1G
1A
1B
1'
b1 ,
#52000
09
0_
1:
0\
1S
1[
1D
1P
0]
07
06
0F
b1011 #
1;
0R
0@
1G
0M
0E
0A
0B
01
12
0'
b1010 &
b1010 +
b0 ,
b1011 (
#53000
19
1_
0:
1\
0S
0[
0P
1]
b1100 #
0;
16
0G
1R
0D
1M
17
1F
1@
1E
1'
b1 ,
#54000
11
0'
b1011 &
b1011 +
b0 ,
b1100 (
#55000
b1101 #
1;
1G
1A
1B
1'
b1 ,
#56000
18
1k
1h
0:
19
0$
1O
0S
1_
0j
1D
0Q
0P
1\
0e
07
06
05
0F
b1101 #
1;
0R
0^
0@
1G
0M
0Y
0E
0A
0B
01
02
13
0'
b1100 &
b1100 +
b0 ,
b1101 (
#57000
1:
1S
b1110 #
0;
1P
0G
0O
0D
1Q
17
1F
1@
1E
1'
b1 ,
#58000
11
0'
b1101 &
b1101 +
b0 ,
b1110 (
#59000
b1111 #
1;
1G
1A
1B
1'
b1 ,
#60000
18
1k
1h
19
0$
1_
0j
1\
0e
1:
05
1S
0^
1D
1P
0Y
07
06
0F
b1111 #
1;
0R
0@
1G
0M
0E
0A
0B
01
12
0'
b1110 &
b1110 +
b0 ,
b1111 (
#61000
08
0k
0h
09
1$
0_
1j
0\
1e
0:
15
0S
1^
0P
1Y
b0 #
0;
16
0G
1R
0D
1M
17
1F
1@
1E
1'
b1 ,
#62000
11
0'
b1111 &
b1111 +
b0 ,
b10000 (
#63000
b1 #
1;
1G
1A
1B
1'
b1 ,
#64000
1:
1S
1[
1P
0]
06
09
08
0R
0_
1g
0k
0\
0i
0h
0Q
05
0$
07
b10 #
0;
0^
0j
0F
0G
0M
0Y
0e
0@
1C
0L
0E
0A
0B
01
02
03
04
0-
1.
0'
b0 &
b10 %
b10 *
b0 +
b0 ,
b10001 (
#65000
b11 #
1;
1G
1D
0C
1E
1'
b1 ,
b10 (
#66000
11
0'
b1 &
b1 +
b0 ,
b11 (
#67000
19
1_
0:
1\
0S
0[
0P
1]
16
b100 #
0;
1R
0G
1L
0D
1Q
17
1F
1A
1'
b1 ,
#68000
b100 #
0:
07
0S
1C
0F
0M
0N
0E
0A
01
12
0'
b10 &
b10 +
b0 ,
b100 (
#69000
b101 #
1;
1G
1D
0C
1E
1'
b1 ,
#70000
11
0'
b11 &
b11 +
b0 ,
b101 (
#71000
0;
b110 #
1:
0G
1S
0D
1M
1N
17
1F
1A
1'
b1 ,
#72000
08
1P
0k
06
19
0h
0R
1_
1g
0L
1\
0i
0Q
b110 #
1:
05
07
1S
0^
1C
0F
0M
0N
0Y
0E
0A
01
02
13
0'
b100 &
b100 +
b0 ,
b110 (
#73000
b111 #
1;
1G
1D
0C
1E
1'
b1 ,
#74000
11
0'
b101 &
b101 +
b0 ,
b111 (
#75000
18
1k
09
1h
0_
0g
0\
1i
0:
15
0S
1^
0P
1Y
16
b1000 #
0;
1R
0G
1L
0D
1Q
17
1F
1A
1'
b1 ,
#76000
b1000 #
0:
07
0S
1C
0F
0M
0N
0E
0A
01
12
0'
b110 &
b110 +
b0 ,
b1000 (
#77000
b1001 #
1;
1G
1D
0C
1E
1'
b1 ,
#78000
11
0'
b111 &
b111 +
b0 ,
b1001 (
#79000
0;
b1010 #
1:
0G
1S
0D
1M
1N
17
1F
1A
1'
b1 ,
#80000
1[
1P
0]
06
09
18
0R
0_
1k
0L
0\
1h
0Q
b1010 #
1:
05
0$
07
1S
0^
0j
1C
0F
0M
0N
0Y
0e
0E
0A
01
02
03
14
0'
b1000 &
b1000 +
b0 ,
b1010 (
#81000
b1011 #
1;
1G
1D
0C
1E
1'
b1 ,
#82000
11
0'
b1001 &
b1001 +
b0 ,
b1011 (
#83000
19
1_
0:
1\
0S
0[
0P
1]
16
b1100 #
0;
1R
0G
1L
0D
1Q
17
1F
1A
1'
b1 ,
#84000
b1100 #
0:
07
0S
1C
0F
0M
0N
0E
0A
01
12
0'
b1010 &
b1010 +
b0 ,
b1100 (
#85000
b1101 #
1;
1G
1D
0C
1E
1'
b1 ,
#86000
11
0'
b1011 &
b1011 +
b0 ,
b1101 (
#87000
0;
b1110 #
1:
0G
1S
0D
1M
1N
17
1F
1A
1'
b1 ,
#88000
18
1k
1P
1h
06
19
0$
0R
1_
0j
0L
1\
0e
0Q
b1110 #
1:
05
07
1S
0^
1C
0F
0M
0N
0Y
0E
0A
01
02
13
0'
b1100 &
b1100 +
b0 ,
b1110 (
#89000
b1111 #
1;
1G
1D
0C
1E
1'
b1 ,
#90000
11
0'
b1101 &
b1101 +
b0 ,
b1111 (
#91000
08
0k
0h
09
1$
0_
1j
0\
1e
0:
15
0S
1^
0P
1Y
16
b0 #
0;
1R
0G
1L
0D
1Q
17
1F
1A
1'
b1 ,
#92000
b0 #
0:
07
0S
1C
0F
0M
0N
0E
0A
01
12
0'
b1110 &
b1110 +
b0 ,
b10000 (
#93000
b1 #
1;
1G
1D
0C
1E
1'
b1 ,
#94000
11
0'
b1111 &
b1111 +
b0 ,
b10001 (
#95000
0;
b10 #
1:
0G
1S
0D
1M
1N
17
1F
1A
1'
b1 ,
#96000
1[
1P
0]
06
09
08
1;
0R
0_
1g
0k
1G
0L
0\
0i
0h
1D
0Q
b11 #
1:
05
0$
07
1S
0^
0j
0F
0M
0N
0Y
0e
0E
0A
01
02
03
04
1-
0'
b0 &
b11 %
b11 *
b0 +
b0 ,
b10010 (
#97000
19
1_
0:
1\
0S
0[
0P
1]
16
b100 #
0;
1R
0G
1L
0D
1Q
17
1F
1@
1E
1'
b1 ,
b11 (
#98000
11
0'
b1 &
b1 +
b0 ,
b100 (
#99000
b101 #
1;
1G
1A
1B
1'
b1 ,
#100000
1D
07
0:
0F
b101 #
1;
0S
0@
1G
0M
0N
0E
0A
0B
01
12
0'
b10 &
b10 +
b0 ,
b101 (
#101000
0;
b110 #
1:
0G
1S
0D
1M
1N
17
1F
1@
1E
1'
b1 ,
#102000
11
0'
b11 &
b11 +
b0 ,
b110 (
#103000
b111 #
1;
1G
1A
1B
1'
b1 ,
#104000
1P
08
06
0k
0R
19
0h
0L
1_
1g
1D
0Q
1\
0i
07
1:
05
0F
b111 #
1;
1S
0^
0@
1G
0M
0N
0Y
0E
0A
0B
01
02
13
0'
b100 &
b100 +
b0 ,
b111 (
#105000
18
1k
09
1h
0_
0g
0\
1i
0:
15
0S
1^
0P
1Y
16
b1000 #
0;
1R
0G
1L
0D
1Q
17
1F
1@
1E
1'
b1 ,
#106000
11
0'
b101 &
b101 +
b0 ,
b1000 (
#107000
b1001 #
1;
1G
1A
1B
1'
b1 ,
#108000
1D
07
0:
0F
b1001 #
1;
0S
0@
1G
0M
0N
0E
0A
0B
01
12
0'
b110 &
b110 +
b0 ,
b1001 (
#109000
0;
b1010 #
1:
0G
1S
0D
1M
1N
17
1F
1@
1E
1'
b1 ,
#110000
11
0'
b111 &
b111 +
b0 ,
b1010 (
#111000
b1011 #
1;
1G
1A
1B
1'
b1 ,
#112000
1[
1P
0]
06
0R
09
18
0L
0_
1k
1D
0Q
0\
1h
07
1:
05
0$
0F
b1011 #
1;
1S
0^
0j
0@
1G
0M
0N
0Y
0e
0E
0A
0B
01
02
03
14
0'
b1000 &
b1000 +
b0 ,
b1011 (
#113000
19
1_
0:
1\
0S
0[
0P
1]
16
b1100 #
0;
1R
0G
1L
0D
1Q
17
1F
1@
1E
1'
b1 ,
#114000
11
0'
b1001 &
b1001 +
b0 ,
b1100 (
#115000
b1101 #
1;
1G
1A
1B
1'
b1 ,
#116000
1D
07
0:
0F
b1101 #
1;
0S
0@
1G
0M
0N
0E
0A
0B
01
12
0'
b1010 &
b1010 +
b0 ,
b1101 (
#117000
0;
b1110 #
1:
0G
1S
0D
1M
1N
17
1F
1@
1E
1'
b1 ,
#118000
11
0'
b1011 &
b1011 +
b0 ,
b1110 (
#119000
b1111 #
1;
1G
1A
1B
1'
b1 ,
#120000
18
1P
1k
06
1h
0R
19
0$
0L
1_
0j
1D
0Q
1\
0e
07
1:
05
0F
b1111 #
1;
1S
0^
0@
1G
0M
0N
0Y
0E
0A
0B
01
02
13
0'
b1100 &
b1100 +
b0 ,
b1111 (
#121000
08
0k
0h
09
1$
0_
1j
0\
1e
0:
15
0S
1^
0P
1Y
16
b0 #
0;
1R
0G
1L
0D
1Q
17
1F
1@
1E
1'
b1 ,
#122000
11
0'
b1101 &
b1101 +
b0 ,
b10000 (
#123000
b1 #
1;
1G
1A
1B
1'
b1 ,
#124000
1D
07
0:
0F
b1 #
1;
0S
0@
1G
0M
0N
0E
0A
0B
01
12
0'
b1110 &
b1110 +
b0 ,
b10001 (
#125000
0;
b10 #
1:
0G
1S
0D
1M
1N
17
1F
1@
1E
1'
b1 ,
#126000
11
0'
b1111 &
b1111 +
b0 ,
b10010 (
#127000
b11 #
1;
1G
1A
1B
1'
b1 ,
#128000
19
1_
1g
1\
0i
05
08
0^
0k
1O
0h
0P
0]
0Q
0$
06
0:
07
b100 #
0;
0j
0R
0S
0F
0G
0M
0Y
0e
0@
1C
0L
0N
0X
0E
0A
0B
01
02
03
04
0-
0.
1/
0'
b0 &
b100 %
b100 *
b0 +
b0 ,
b10011 (
#129000
b101 #
1;
1G
1D
0C
1E
1'
b1 ,
b100 (
#130000
11
0'
b1 &
b1 +
b0 ,
b101 (
#131000
1:
1S
b110 #
0;
1P
0G
0O
0D
1Q
17
1F
1A
1'
b1 ,
#132000
08
0k
19
0h
1_
1g
1\
0i
05
b110 #
1:
0^
1S
0X
1P
0]
06
07
0R
1C
0F
0M
0E
0A
01
12
0'
b10 &
b10 +
b0 ,
b110 (
#133000
b111 #
1;
1G
1D
0C
1E
1'
b1 ,
#134000
11
0'
b11 &
b11 +
b0 ,
b111 (
#135000
18
1k
09
1h
0_
0g
0\
1i
15
0:
1^
0S
1X
0P
1]
b1000 #
0;
16
0G
1R
0D
1M
17
1F
1A
1'
b1 ,
#136000
0:
0S
1O
0P
0Q
06
b1000 #
09
07
0R
0_
1C
0F
0M
0Y
0Z
0E
0A
01
02
13
0'
b100 &
b100 +
b0 ,
b1000 (
#137000
b1001 #
1;
1G
1D
0C
1E
1'
b1 ,
#138000
11
0'
b101 &
b101 +
b0 ,
b1001 (
#139000
1:
1S
b1010 #
0;
1P
0G
0O
0D
1Q
17
1F
1A
1'
b1 ,
#140000
1:
b1010 #
09
1S
0_
1P
0Y
0Z
06
07
0R
1C
0F
0M
0E
0A
01
12
0'
b110 &
b110 +
b0 ,
b1010 (
#141000
b1011 #
1;
1G
1D
0C
1E
1'
b1 ,
#142000
11
0'
b111 &
b111 +
b0 ,
b1011 (
#143000
0:
19
0S
1_
0P
1Y
1Z
b1100 #
0;
16
0G
1R
0D
1M
17
1F
1A
1'
b1 ,
#144000
1\
05
0:
0^
18
0S
0X
1k
1O
0P
0]
1h
0Q
06
b1100 #
19
0$
07
0R
1_
0j
1C
0F
0M
0Y
0Z
0e
0E
0A
01
02
03
14
0'
b1000 &
b1000 +
b0 ,
b1100 (
#145000
b1101 #
1;
1G
1D
0C
1E
1'
b1 ,
#146000
11
0'
b1001 &
b1001 +
b0 ,
b1101 (
#147000
1:
1S
b1110 #
0;
1P
0G
0O
0D
1Q
17
1F
1A
1'
b1 ,
#148000
18
1k
1h
19
0$
1_
0j
1\
0e
05
b1110 #
1:
0^
1S
0X
1P
0]
06
07
0R
1C
0F
0M
0E
0A
01
12
0'
b1010 &
b1010 +
b0 ,
b1110 (
#149000
b1111 #
1;
1G
1D
0C
1E
1'
b1 ,
#150000
11
0'
b1011 &
b1011 +
b0 ,
b1111 (
#151000
08
0k
0h
09
1$
0_
1j
0\
1e
15
0:
1^
0S
1X
0P
1]
b0 #
0;
16
0G
1R
0D
1M
17
1F
1A
1'
b1 ,
#152000
0:
0S
1O
0P
0Q
06
b0 #
09
07
0R
0_
1C
0F
0M
0Y
0Z
0E
0A
01
02
13
0'
b1100 &
b1100 +
b0 ,
b10000 (
#153000
b1 #
1;
1G
1D
0C
1E
1'
b1 ,
#154000
11
0'
b1101 &
b1101 +
b0 ,
b10001 (
#155000
1:
1S
b10 #
0;
1P
0G
0O
0D
1Q
17
1F
1A
1'
b1 ,
#156000
1:
b10 #
09
1S
0_
1P
0Y
0Z
06
07
0R
1C
0F
0M
0E
0A
01
12
0'
b1110 &
b1110 +
b0 ,
b10010 (
#157000
b11 #
1;
1G
1D
0C
1E
1'
b1 ,
#158000
11
0'
b1111 &
b1111 +
b0 ,
b10011 (
#159000
0:
19
0S
1_
0P
1Y
1Z
b100 #
0;
16
0G
1R
0D
1M
17
1F
1A
1'
b1 ,
#160000
1g
1\
0i
05
0:
0^
08
1;
0S
0X
0k
1G
1O
0P
0]
0h
1D
0Q
06
b101 #
19
0$
07
0R
1_
0j
0F
0M
0Y
0Z
0e
0E
0A
01
02
03
04
1-
0'
b0 &
b101 %
b101 *
b0 +
b0 ,
b10100 (
#161000
1:
1S
b110 #
0;
1P
0G
0O
0D
1Q
17
1F
1@
1E
1'
b1 ,
b101 (
#162000
11
0'
b1 &
b1 +
b0 ,
b110 (
#163000
b111 #
1;
1G
1A
1B
1'
b1 ,
#164000
08
0k
19
0h
1_
1g
1\
0i
05
1:
0^
1S
0X
1D
1P
0]
07
06
0F
b111 #
1;
0R
0@
1G
0M
0E
0A
0B
01
12
0'
b10 &
b10 +
b0 ,
b111 (
#165000
18
1k
09
1h
0_
0g
0\
1i
15
0:
1^
0S
1X
0P
1]
b1000 #
0;
16
0G
1R
0D
1M
17
1F
1@
1E
1'
b1 ,
#166000
11
0'
b11 &
b11 +
b0 ,
b1000 (
#167000
b1001 #
1;
1G
1A
1B
1'
b1 ,
#168000
0:
1O
0S
1D
0Q
0P
07
06
09
0F
b1001 #
1;
0R
0_
0@
1G
0M
0Y
0Z
0E
0A
0B
01
02
13
0'
b100 &
b100 +
b0 ,
b1001 (
#169000
1:
1S
b1010 #
0;
1P
0G
0O
0D
1Q
17
1F
1@
1E
1'
b1 ,
#170000
11
0'
b101 &
b101 +
b0 ,
b1010 (
#171000
b1011 #
1;
1G
1A
1B
1'
b1 ,
#172000
1:
09
1S
0_
1D
1P
0Y
0Z
07
06
0F
b1011 #
1;
0R
0@
1G
0M
0E
0A
0B
01
12
0'
b110 &
b110 +
b0 ,
b1011 (
#173000
0:
19
0S
1_
0P
1Y
1Z
b1100 #
0;
16
0G
1R
0D
1M
17
1F
1@
1E
1'
b1 ,
#174000
11
0'
b111 &
b111 +
b0 ,
b1100 (
#175000
b1101 #
1;
1G
1A
1B
1'
b1 ,
#176000
1\
05
0:
0^
18
1O
0S
0X
1k
1D
0Q
0P
0]
1h
07
06
19
0$
0F
b1101 #
1;
0R
1_
0j
0@
1G
0M
0Y
0Z
0e
0E
0A
0B
01
02
03
14
0'
b1000 &
b1000 +
b0 ,
b1101 (
#177000
1:
1S
b1110 #
0;
1P
0G
0O
0D
1Q
17
1F
1@
1E
1'
b1 ,
#178000
11
0'
b1001 &
b1001 +
b0 ,
b1110 (
#179000
b1111 #
1;
1G
1A
1B
1'
b1 ,
#180000
18
1k
1h
19
0$
1_
0j
1\
0e
05
1:
0^
1S
0X
1D
1P
0]
07
06
0F
b1111 #
1;
0R
0@
1G
0M
0E
0A
0B
01
12
0'
b1010 &
b1010 +
b0 ,
b1111 (
#181000
08
0k
0h
09
1$
0_
1j
0\
1e
15
0:
1^
0S
1X
0P
1]
b0 #
0;
16
0G
1R
0D
1M
17
1F
1@
1E
1'
b1 ,
#182000
11
0'
b1011 &
b1011 +
b0 ,
b10000 (
#183000
b1 #
1;
1G
1A
1B
1'
b1 ,
#184000
0:
1O
0S
1D
0Q
0P
07
06
09
0F
b1 #
1;
0R
0_
0@
1G
0M
0Y
0Z
0E
0A
0B
01
02
13
0'
b1100 &
b1100 +
b0 ,
b10001 (
#185000
1:
1S
b10 #
0;
1P
0G
0O
0D
1Q
17
1F
1@
1E
1'
b1 ,
#186000
11
0'
b1101 &
b1101 +
b0 ,
b10010 (
#187000
b11 #
1;
1G
1A
1B
1'
b1 ,
#188000
1:
09
1S
0_
1D
1P
0Y
0Z
07
06
0F
b11 #
1;
0R
0@
1G
0M
0E
0A
0B
01
12
0'
b1110 &
b1110 +
b0 ,
b10011 (
#189000
0:
19
0S
1_
0P
1Y
1Z
b100 #
0;
16
0G
1R
0D
1M
17
1F
1@
1E
1'
b1 ,
#190000
11
0'
b1111 &
b1111 +
b0 ,
b10100 (
#191000
b101 #
1;
1G
1A
1B
1'
b1 ,
#192000
1g
1\
0i
05
1:
0^
1S
0X
1P
0]
06
08
0R
0k
0h
0Q
19
0$
07
b110 #
0;
1_
0j
0F
0G
0M
0Y
0Z
0e
0@
1C
0L
0E
0A
0B
01
02
03
04
0-
1.
0'
b0 &
b110 %
b110 *
b0 +
b0 ,
b10101 (
#193000
b111 #
1;
1G
1D
0C
1E
1'
b1 ,
b110 (
#194000
11
0'
b1 &
b1 +
b0 ,
b111 (
#195000
18
1k
09
1h
0_
0g
0\
1i
15
0:
1^
0S
1X
0P
1]
16
b1000 #
0;
1R
0G
1L
0D
1Q
17
1F
1A
1'
b1 ,
#196000
b1000 #
0:
07
0S
1C
0F
0M
0N
0E
0A
01
12
0'
b10 &
b10 +
b0 ,
b1000 (
#197000
b1001 #
1;
1G
1D
0C
1E
1'
b1 ,
#198000
11
0'
b11 &
b11 +
b0 ,
b1001 (
#199000
0;
b1010 #
1:
0G
1S
0D
1M
1N
17
1F
1A
1'
b1 ,
#200000
1P
06
0R
0L
0Q
1:
b1010 #
09
07
1S
0_
1C
0F
0M
0N
0Y
0Z
0E
0A
01
02
13
0'
b100 &
b100 +
b0 ,
b1010 (
#201000
b1011 #
1;
1G
1D
0C
1E
1'
b1 ,
#202000
11
0'
b101 &
b101 +
b0 ,
b1011 (
#203000
0:
19
0S
1_
0P
1Y
1Z
16
b1100 #
0;
1R
0G
1L
0D
1Q
17
1F
1A
1'
b1 ,
#204000
b1100 #
0:
07
0S
1C
0F
0M
0N
0E
0A
01
12
0'
b110 &
b110 +
b0 ,
b1100 (
#205000
b1101 #
1;
1G
1D
0C
1E
1'
b1 ,
#206000
11
0'
b111 &
b111 +
b0 ,
b1101 (
#207000
0;
b1110 #
1:
0G
1S
0D
1M
1N
17
1F
1A
1'
b1 ,
#208000
1\
05
0^
0X
1P
0]
06
18
0R
1k
0L
1h
0Q
1:
b1110 #
19
0$
07
1S
1_
0j
1C
0F
0M
0N
0Y
0Z
0e
0E
0A
01
02
03
14
0'
b1000 &
b1000 +
b0 ,
b1110 (
#209000
b1111 #
1;
1G
1D
0C
1E
1'
b1 ,
#210000
11
0'
b1001 &
b1001 +
b0 ,
b1111 (
#211000
08
0k
0h
09
1$
0_
1j
0\
1e
15
0:
1^
0S
1X
0P
1]
16
b0 #
0;
1R
0G
1L
0D
1Q
17
1F
1A
1'
b1 ,
#212000
b0 #
0:
07
0S
1C
0F
0M
0N
0E
0A
01
12
0'
b1010 &
b1010 +
b0 ,
b10000 (
#213000
b1 #
1;
1G
1D
0C
1E
1'
b1 ,
#214000
11
0'
b1011 &
b1011 +
b0 ,
b10001 (
#215000
0;
b10 #
1:
0G
1S
0D
1M
1N
17
1F
1A
1'
b1 ,
#216000
1P
06
0R
0L
0Q
1:
b10 #
09
07
1S
0_
1C
0F
0M
0N
0Y
0Z
0E
0A
01
02
13
0'
b1100 &
b1100 +
b0 ,
b10010 (
#217000
b11 #
1;
1G
1D
0C
1E
1'
b1 ,
#218000
11
0'
b1101 &
b1101 +
b0 ,
b10011 (
#219000
0:
19
0S
1_
0P
1Y
1Z
16
b100 #
0;
1R
0G
1L
0D
1Q
17
1F
1A
1'
b1 ,
#220000
b100 #
0:
07
0S
1C
0F
0M
0N
0E
0A
01
12
0'
b1110 &
b1110 +
b0 ,
b10100 (
#221000
b101 #
1;
1G
1D
0C
1E
1'
b1 ,
#222000
11
0'
b1111 &
b1111 +
b0 ,
b10101 (
#223000
0;
b110 #
1:
0G
1S
0D
1M
1N
17
1F
1A
1'
b1 ,
