iverilog/new_adder_4bit.vcd
$date
	Sat Jun  6 11:27:00 2026
$end
$version
	Icarus Verilog
$end
$timescale
	1ps
$end
$scope module new_adder_4bit_tb $end
$var wire 1 ! VGND $end
$var wire 1 " VPWR $end
$var wire 4 # Sum [3:0] $end
$var wire 1 $ Cout $end
$var reg 4 % A [3:0] $end
$var reg 4 & B [3:0] $end
$var reg 1 ' Cin $end
$var reg 5 ( expected [4:0] $end
$var integer 32 ) error_count [31:0] $end
$var integer 32 * i [31:0] $end
$var integer 32 + j [31:0] $end
$var integer 32 , k [31:0] $end
$scope module uut $end
$var wire 1 - A0 $end
$var wire 1 . A1 $end
$var wire 1 / A2 $end
$var wire 1 0 A3 $end
$var wire 1 1 B0 $end
$var wire 1 2 B1 $end
$var wire 1 3 B2 $end
$var wire 1 4 B3 $end
$var wire 1 ' CIN $end
$var wire 1 5 GND $end
$var wire 1 6 VDD $end
$var wire 1 7 net3 $end
$var wire 1 8 net2 $end
$var wire 1 9 net1 $end
$var wire 1 : S3 $end
$var wire 1 ; S2 $end
$var wire 1 < S1 $end
$var wire 1 = S0 $end
$var wire 1 $ COUT $end
$scope module x1 $end
$var wire 1 - A $end
$var wire 1 1 B $end
$var wire 1 ' CIN $end
$var wire 1 9 COUT $end
$var wire 1 = SUM $end
$var wire 1 > VGND $end
$var wire 1 ? VNB $end
$var wire 1 @ VPB $end
$var wire 1 A VPWR $end
$var wire 1 B and0_out $end
$var wire 1 C and1_out $end
$var wire 1 D and2_out $end
$var wire 1 E nor0_out $end
$var wire 1 F nor1_out $end
$var wire 1 G or0_out $end
$var wire 1 H or1_out_COUT $end
$var wire 1 I or2_out_SUM $end
$upscope $end
$scope module x2 $end
$var wire 1 . A $end
$var wire 1 2 B $end
$var wire 1 9 CIN $end
$var wire 1 8 COUT $end
$var wire 1 < SUM $end
$var wire 1 J VGND $end
$var wire 1 K VNB $end
$var wire 1 L VPB $end
$var wire 1 M VPWR $end
$var wire 1 N and0_out $end
$var wire 1 O and1_out $end
$var wire 1 P and2_out $end
$var wire 1 Q nor0_out $end
$var wire 1 R nor1_out $end
$var wire 1 S or0_out $end
$var wire 1 T or1_out_COUT $end
$var wire 1 U or2_out_SUM $end
$upscope $end
$scope module x3 $end
$var wire 1 / A $end
$var wire 1 3 B $end
$var wire 1 8 CIN $end
$var wire 1 7 COUT $end
$var wire 1 ; SUM $end
$var wire 1 V VGND $end
$var wire 1 W VNB $end
$var wire 1 X VPB $end
$var wire 1 Y VPWR $end
$var wire 1 Z and0_out $end
$var wire 1 [ and1_out $end
$var wire 1 \ and2_out $end
$var wire 1 ] nor0_out $end
$var wire 1 ^ nor1_out $end
$var wire 1 _ or0_out $end
$var wire 1 ` or1_out_COUT $end
$var wire 1 a or2_out_SUM $end
$upscope $end
$scope module x4 $end
$var wire 1 0 A $end
$var wire 1 4 B $end
$var wire 1 7 CIN $end
$var wire 1 $ COUT $end
$var wire 1 : SUM $end
$var wire 1 b VGND $end
$var wire 1 c VNB $end
$var wire 1 d VPB $end
$var wire 1 e VPWR $end
$var wire 1 f and0_out $end
$var wire 1 g and1_out $end
$var wire 1 h and2_out $end
$var wire 1 i nor0_out $end
$var wire 1 j nor1_out $end
$var wire 1 k or0_out $end
$var wire 1 l or1_out_COUT $end
$var wire 1 m or2_out_SUM $end
$upscope $end
$upscope $end
$upscope $end
$enddefinitions $end
#0
$dumpvars
0m
0l
0k
0j
1i
0h
0g
0f
1e
1d
0c
0b
0a
0`
0_
0^
1]
0\
0[
0Z
1Y
1X
0W
0V
0U
0T
0S
0R
1Q
0P
0O
0N
1M
1L
0K
0J
0I
0H
0G
0F
1E
0D
0C
0B
1A
1@
0?
0>
0=
0<
0;
0:
09
08
07
z6
z5
04
03
02
01
00
0/
0.
0-
b0 ,
b0 +
b0 *
b0 )
bx (
0'
b0 &
b0 %
0$
b0 #
1"
0!
$end
#1000
b1 #
1=
1I
1F
0E
1G
1'
b1 ,
b0 (
#2000
11
0'
b1 &
b1 +
b0 ,
b1 (
#3000
1<
1U
b10 #
0=
1R
0I
0Q
0F
1S
19
1H
1C
1'
b1 ,
#4000
0;
0a
b10 #
1<
0^
1U
1]
1R
0_
08
09
0T
1E
0H
0O
0G
0C
01
12
0'
b10 &
b10 +
b0 ,
b10 (
#5000
b11 #
1=
1I
1F
0E
1G
1'
b1 ,
#6000
11
0'
b11 &
b11 +
b0 ,
b11 (
#7000
1;
1a
0<
1^
0U
0]
0R
1_
b100 #
0=
18
0I
1T
0F
1O
19
1H
1C
1'
b1 ,
#8000
0:
0m
0<
b100 #
1;
0j
0U
1a
1i
1Q
0R
1^
0k
0S
08
07
09
0T
0`
1E
0H
0O
0[
0G
0C
01
02
13
0'
b100 &
b100 +
b0 ,
b100 (
#9000
b101 #
1=
1I
1F
0E
1G
1'
b1 ,
#10000
11
0'
b101 &
b101 +
b0 ,
b101 (
#11000
1<
1U
b110 #
0=
1R
0I
0Q
0F
1S
19
1H
1C
1'
b1 ,
#12000
0:
0m
1;
0j
1a
1i
1^
0k
b110 #
1<
07
1U
0`
1R
0[
08
09
0T
1E
0H
0O
0G
0C
01
12
0'
b110 &
b110 +
b0 ,
b110 (
#13000
b111 #
1=
1I
1F
0E
1G
1'
b1 ,
#14000
11
0'
b111 &
b111 +
b0 ,
b111 (
#15000
1:
1m
0;
1j
0a
0i
0^
1k
0<
17
0U
1`
0R
1[
b1000 #
0=
18
0I
1T
0F
1O
19
1H
1C
1'
b1 ,
#16000
0<
0;
b1000 #
1:
0U
1]
0a
1m
1Q
0R
0_
0^
1j
0S
08
07
0$
09
0T
0`
0l
1E
0H
0O
0[
0g
0G
0C
01
02
03
14
0'
b1000 &
b1000 +
b0 ,
b1000 (
#17000
b1001 #
1=
1I
1F
0E
1G
1'
b1 ,
#18000
11
0'
b1001 &
b1001 +
b0 ,
b1001 (
#19000
1<
1U
b1010 #
0=
1R
0I
0Q
0F
1S
19
1H
1C
1'
b1 ,
#20000
0;
0a
b1010 #
1<
0^
1U
1]
1R
0_
08
09
0T
1E
0H
0O
0G
0C
01
12
0'
b1010 &
b1010 +
b0 ,
b1010 (
#21000
b1011 #
1=
1I
1F
0E
1G
1'
b1 ,
#22000
11
0'
b1011 &
b1011 +
b0 ,
b1011 (
#23000
1;
1a
0<
1^
0U
0]
0R
1_
b1100 #
0=
18
0I
1T
0F
1O
19
1H
1C
1'
b1 ,
#24000
1:
1m
1j
0<
b1100 #
1;
0$
0U
1a
0l
1Q
0R
1^
0g
0S
08
07
09
0T
0`
1E
0H
0O
0[
0G
0C
01
02
13
0'
b1100 &
b1100 +
b0 ,
b1100 (
#25000
b1101 #
1=
1I
1F
0E
1G
1'
b1 ,
#26000
11
0'
b1101 &
b1101 +
b0 ,
b1101 (
#27000
1<
1U
b1110 #
0=
1R
0I
0Q
0F
1S
19
1H
1C
1'
b1 ,
#28000
1:
1m
1j
1;
0$
1a
0l
1^
0g
b1110 #
1<
07
1U
0`
1R
0[
08
09
0T
1E
0H
0O
0G
0C
01
12
0'
b1110 &
b1110 +
b0 ,
b1110 (
#29000
b1111 #
1=
1I
1F
0E
1G
1'
b1 ,
#30000
11
0'
b1111 &
b1111 +
b0 ,
b1111 (
#31000
0:
0m
0j
0;
1$
0a
1l
0^
1g
0<
17
0U
1`
0R
1[
b0 #
0=
18
0I
1T
0F
1O
19
1H
1C
1'
b1 ,
#32000
0<
0;
0:
b1 #
1=
0U
1]
0a
1i
0m
1I
1Q
0R
0_
0^
0k
0j
1F
0S
08
07
0$
09
0T
0`
0l
0H
0O
0[
0g
0G
0C
01
02
03
04
1-
0'
b0 &
b1 %
b1 *
b0 +
b0 ,
b10000 (
#33000
1<
1U
b10 #
0=
1R
0I
0Q
0F
1S
19
1H
1B
1G
1'
b1 ,
b1 (
#34000
11
0'
b1 &
b1 +
b0 ,
b10 (
#35000
b11 #
1=
1I
1C
1D
1'
b1 ,
#36000
0;
0a
1<
0^
1U
1]
1F
1R
0_
09
08
0H
b11 #
1=
0T
0B
1I
0O
0G
0C
0D
01
12
0'
b10 &
b10 +
b0 ,
b11 (
#37000
1;
1a
0<
1^
0U
0]
0R
1_
b100 #
0=
18
0I
1T
0F
1O
19
1H
1B
1G
1'
b1 ,
#38000
11
0'
b11 &
b11 +
b0 ,
b100 (
#39000
b101 #
1=
1I
1C
1D
1'
b1 ,
#40000
0:
0m
0<
1;
0j
1Q
0U
1a
1i
1F
0S
0R
1^
0k
09
08
07
0H
b101 #
1=
0T
0`
0B
1I
0O
0[
0G
0C
0D
01
02
13
0'
b100 &
b100 +
b0 ,
b101 (
#41000
1<
1U
b110 #
0=
1R
0I
0Q
0F
1S
19
1H
1B
1G
1'
b1 ,
#42000
11
0'
b101 &
b101 +
b0 ,
b110 (
#43000
b111 #
1=
1I
1C
1D
1'
b1 ,
#44000
0:
0m
1;
0j
1a
1i
1^
0k
1<
07
1U
0`
1F
1R
0[
09
08
0H
b111 #
1=
0T
0B
1I
0O
0G
0C
0D
01
12
0'
b110 &
b110 +
b0 ,
b111 (
#45000
1:
1m
0;
1j
0a
0i
0^
1k
0<
17
0U
1`
0R
1[
b1000 #
0=
18
0I
1T
0F
1O
19
1H
1B
1G
1'
b1 ,
#46000
11
0'
b111 &
b111 +
b0 ,
b1000 (
#47000
b1001 #
1=
1I
1C
1D
1'
b1 ,
#48000
0<
0;
1:
1Q
0U
1]
0a
1m
1F
0S
0R
0_
0^
1j
09
08
07
0$
0H
b1001 #
1=
0T
0`
0l
0B
1I
0O
0[
0g
0G
0C
0D
01
02
03
14
0'
b1000 &
b1000 +
b0 ,
b1001 (
#49000
1<
1U
b1010 #
0=
1R
0I
0Q
0F
1S
19
1H
1B
1G
1'
b1 ,
#50000
11
0'
b1001 &
b1001 +
b0 ,
b1010 (
#51000
b1011 #
1=
1I
1C
1D
1'
b1 ,
#52000
0;
0a
1<
0^
1U
1]
1F
1R
0_
09
08
0H
b1011 #
1=
0T
0B
1I
0O
0G
0C
0D
01
12
0'
b1010 &
b1010 +
b0 ,
b1011 (
#53000
1;
1a
0<
1^
0U
0]
0R
1_
b1100 #
0=
18
0I
1T
0F
1O
19
1H
1B
1G
1'
b1 ,
#54000
11
0'
b1011 &
b1011 +
b0 ,
b1100 (
#55000
b1101 #
1=
1I
1C
1D
1'
b1 ,
#56000
1:
1m
1j
0<
1;
0$
1Q
0U
1a
0l
1F
0S
0R
1^
0g
09
08
07
0H
b1101 #
1=
0T
0`
0B
1I
0O
0[
0G
0C
0D
01
02
13
0'
b1100 &
b1100 +
b0 ,
b1101 (
#57000
1<
1U
b1110 #
0=
1R
0I
0Q
0F
1S
19
1H
1B
1G
1'
b1 ,
#58000
11
0'
b1101 &
b1101 +
b0 ,
b1110 (
#59000
b1111 #
1=
1I
1C
1D
1'
b1 ,
#60000
1:
1m
1j
1;
0$
1a
0l
1^
0g
1<
07
1U
0`
1F
1R
0[
09
08
0H
b1111 #
1=
0T
0B
1I
0O
0G
0C
0D
01
12
0'
b1110 &
b1110 +
b0 ,
b1111 (
#61000
0:
0m
0j
0;
1$
0a
1l
0^
1g
0<
17
0U
1`
0R
1[
b0 #
0=
18
0I
1T
0F
1O
19
1H
1B
1G
1'
b1 ,
#62000
11
0'
b1111 &
b1111 +
b0 ,
b10000 (
#63000
b1 #
1=
1I
1C
1D
1'
b1 ,
#64000
1<
1U
1]
1R
0_
08
0;
0:
0T
0a
1i
0m
0^
0k
0j
0S
07
0$
09
b10 #
0=
0`
0l
0H
0I
0O
0[
0g
0B
1E
0N
0G
0C
0D
01
02
03
04
0-
1.
0'
b0 &
b10 %
b10 *
b0 +
b0 ,
b10001 (
#65000
b11 #
1=
1I
1F
0E
1G
1'
b1 ,
b10 (
#66000
11
0'
b1 &
b1 +
b0 ,
b11 (
#67000
1;
1a
0<
1^
0U
0]
0R
1_
18
b100 #
0=
1T
0I
1N
0F
1S
19
1H
1C
1'
b1 ,
#68000
b100 #
0<
09
0U
1E
0H
0O
0P
0G
0C
01
12
0'
b10 &
b10 +
b0 ,
b100 (
#69000
b101 #
1=
1I
1F
0E
1G
1'
b1 ,
#70000
11
0'
b11 &
b11 +
b0 ,
b101 (
#71000
0=
b110 #
1<
0I
1U
0F
1O
1P
19
1H
1C
1'
b1 ,
#72000
0:
1R
0m
08
1;
0j
0T
1a
1i
0N
1^
0k
0S
b110 #
1<
07
09
1U
0`
1E
0H
0O
0P
0[
0G
0C
01
02
13
0'
b100 &
b100 +
b0 ,
b110 (
#73000
b111 #
1=
1I
1F
0E
1G
1'
b1 ,
#74000
11
0'
b101 &
b101 +
b0 ,
b111 (
#75000
1:
1m
0;
1j
0a
0i
0^
1k
0<
17
0U
1`
0R
1[
18
b1000 #
0=
1T
0I
1N
0F
1S
19
1H
1C
1'
b1 ,
#76000
b1000 #
0<
09
0U
1E
0H
0O
0P
0G
0C
01
12
0'
b110 &
b110 +
b0 ,
b1000 (
#77000
b1001 #
1=
1I
1F
0E
1G
1'
b1 ,
#78000
11
0'
b111 &
b111 +
b0 ,
b1001 (
#79000
0=
b1010 #
1<
0I
1U
0F
1O
1P
19
1H
1C
1'
b1 ,
#80000
1]
1R
0_
08
0;
1:
0T
0a
1m
0N
0^
1j
0S
b1010 #
1<
07
0$
09
1U
0`
0l
1E
0H
0O
0P
0[
0g
0G
0C
01
02
03
14
0'
b1000 &
b1000 +
b0 ,
b1010 (
#81000
b1011 #
1=
1I
1F
0E
1G
1'
b1 ,
#82000
11
0'
b1001 &
b1001 +
b0 ,
b1011 (
#83000
1;
1a
0<
1^
0U
0]
0R
1_
18
b1100 #
0=
1T
0I
1N
0F
1S
19
1H
1C
1'
b1 ,
#84000
b1100 #
0<
09
0U
1E
0H
0O
0P
0G
0C
01
12
0'
b1010 &
b1010 +
b0 ,
b1100 (
#85000
b1101 #
1=
1I
1F
0E
1G
1'
b1 ,
#86000
11
0'
b1011 &
b1011 +
b0 ,
b1101 (
#87000
0=
b1110 #
1<
0I
1U
0F
1O
1P
19
1H
1C
1'
b1 ,
#88000
1:
1m
1R
1j
08
1;
0$
0T
1a
0l
0N
1^
0g
0S
b1110 #
1<
07
09
1U
0`
1E
0H
0O
0P
0[
0G
0C
01
02
13
0'
b1100 &
b1100 +
b0 ,
b1110 (
#89000
b1111 #
1=
1I
1F
0E
1G
1'
b1 ,
#90000
11
0'
b1101 &
b1101 +
b0 ,
b1111 (
#91000
0:
0m
0j
0;
1$
0a
1l
0^
1g
0<
17
0U
1`
0R
1[
18
b0 #
0=
1T
0I
1N
0F
1S
19
1H
1C
1'
b1 ,
#92000
b0 #
0<
09
0U
1E
0H
0O
0P
0G
0C
01
12
0'
b1110 &
b1110 +
b0 ,
b10000 (
#93000
b1 #
1=
1I
1F
0E
1G
1'
b1 ,
#94000
11
0'
b1111 &
b1111 +
b0 ,
b10001 (
#95000
0=
b10 #
1<
0I
1U
0F
1O
1P
19
1H
1C
1'
b1 ,
#96000
1]
1R
0_
08
0;
0:
1=
0T
0a
1i
0m
1I
0N
0^
0k
0j
1F
0S
b11 #
1<
07
0$
09
1U
0`
0l
0H
0O
0P
0[
0g
0G
0C
01
02
03
04
1-
0'
b0 &
b11 %
b11 *
b0 +
b0 ,
b10010 (
#97000
1;
1a
0<
1^
0U
0]
0R
1_
18
b100 #
0=
1T
0I
1N
0F
1S
19
1H
1B
1G
1'
b1 ,
b11 (
#98000
11
0'
b1 &
b1 +
b0 ,
b100 (
#99000
b101 #
1=
1I
1C
1D
1'
b1 ,
#100000
1F
09
0<
0H
b101 #
1=
0U
0B
1I
0O
0P
0G
0C
0D
01
12
0'
b10 &
b10 +
b0 ,
b101 (
#101000
0=
b110 #
1<
0I
1U
0F
1O
1P
19
1H
1B
1G
1'
b1 ,
#102000
11
0'
b11 &
b11 +
b0 ,
b110 (
#103000
b111 #
1=
1I
1C
1D
1'
b1 ,
#104000
1R
0:
08
0m
0T
1;
0j
0N
1a
1i
1F
0S
1^
0k
09
1<
07
0H
b111 #
1=
1U
0`
0B
1I
0O
0P
0[
0G
0C
0D
01
02
13
0'
b100 &
b100 +
b0 ,
b111 (
#105000
1:
1m
0;
1j
0a
0i
0^
1k
0<
17
0U
1`
0R
1[
18
b1000 #
0=
1T
0I
1N
0F
1S
19
1H
1B
1G
1'
b1 ,
#106000
11
0'
b101 &
b101 +
b0 ,
b1000 (
#107000
b1001 #
1=
1I
1C
1D
1'
b1 ,
#108000
1F
09
0<
0H
b1001 #
1=
0U
0B
1I
0O
0P
0G
0C
0D
01
12
0'
b110 &
b110 +
b0 ,
b1001 (
#109000
0=
b1010 #
1<
0I
1U
0F
1O
1P
19
1H
1B
1G
1'
b1 ,
#110000
11
0'
b111 &
b111 +
b0 ,
b1010 (
#111000
b1011 #
1=
1I
1C
1D
1'
b1 ,
#112000
1]
1R
0_
08
0T
0;
1:
0N
0a
1m
1F
0S
0^
1j
09
1<
07
0$
0H
b1011 #
1=
1U
0`
0l
0B
1I
0O
0P
0[
0g
0G
0C
0D
01
02
03
14
0'
b1000 &
b1000 +
b0 ,
b1011 (
#113000
1;
1a
0<
1^
0U
0]
0R
1_
18
b1100 #
0=
1T
0I
1N
0F
1S
19
1H
1B
1G
1'
b1 ,
#114000
11
0'
b1001 &
b1001 +
b0 ,
b1100 (
#115000
b1101 #
1=
1I
1C
1D
1'
b1 ,
#116000
1F
09
0<
0H
b1101 #
1=
0U
0B
1I
0O
0P
0G
0C
0D
01
12
0'
b1010 &
b1010 +
b0 ,
b1101 (
#117000
0=
b1110 #
1<
0I
1U
0F
1O
1P
19
1H
1B
1G
1'
b1 ,
#118000
11
0'
b1011 &
b1011 +
b0 ,
b1110 (
#119000
b1111 #
1=
1I
1C
1D
1'
b1 ,
#120000
1:
1R
1m
08
1j
0T
1;
0$
0N
1a
0l
1F
0S
1^
0g
09
1<
07
0H
b1111 #
1=
1U
0`
0B
1I
0O
0P
0[
0G
0C
0D
01
02
13
0'
b1100 &
b1100 +
b0 ,
b1111 (
#121000
0:
0m
0j
0;
1$
0a
1l
0^
1g
0<
17
0U
1`
0R
1[
18
b0 #
0=
1T
0I
1N
0F
1S
19
1H
1B
1G
1'
b1 ,
#122000
11
0'
b1101 &
b1101 +
b0 ,
b10000 (
#123000
b1 #
1=
1I
1C
1D
1'
b1 ,
#124000
1F
09
0<
0H
b1 #
1=
0U
0B
1I
0O
0P
0G
0C
0D
01
12
0'
b1110 &
b1110 +
b0 ,
b10001 (
#125000
0=
b10 #
1<
0I
1U
0F
1O
1P
19
1H
1B
1G
1'
b1 ,
#126000
11
0'
b1111 &
b1111 +
b0 ,
b10010 (
#127000
b11 #
1=
1I
1C
1D
1'
b1 ,
#128000
1;
1a
1i
1^
0k
07
0:
0`
0m
1Q
0j
0R
0_
0S
0$
08
0<
09
b100 #
0=
0l
0T
0U
0H
0I
0O
0[
0g
0B
1E
0N
0P
0Z
0G
0C
0D
01
02
03
04
0-
0.
1/
0'
b0 &
b100 %
b100 *
b0 +
b0 ,
b10011 (
#129000
b101 #
1=
1I
1F
0E
1G
1'
b1 ,
b100 (
#130000
11
0'
b1 &
b1 +
b0 ,
b101 (
#131000
1<
1U
b110 #
0=
1R
0I
0Q
0F
1S
19
1H
1C
1'
b1 ,
#132000
0:
0m
1;
0j
1a
1i
1^
0k
07
b110 #
1<
0`
1U
0Z
1R
0_
08
09
0T
1E
0H
0O
0G
0C
01
12
0'
b10 &
b10 +
b0 ,
b110 (
#133000
b111 #
1=
1I
1F
0E
1G
1'
b1 ,
#134000
11
0'
b11 &
b11 +
b0 ,
b111 (
#135000
1:
1m
0;
1j
0a
0i
0^
1k
17
0<
1`
0U
1Z
0R
1_
b1000 #
0=
18
0I
1T
0F
1O
19
1H
1C
1'
b1 ,
#136000
0<
0U
1Q
0R
0S
08
b1000 #
0;
09
0T
0a
1E
0H
0O
0[
0\
0G
0C
01
02
13
0'
b100 &
b100 +
b0 ,
b1000 (
#137000
b1001 #
1=
1I
1F
0E
1G
1'
b1 ,
#138000
11
0'
b101 &
b101 +
b0 ,
b1001 (
#139000
1<
1U
b1010 #
0=
1R
0I
0Q
0F
1S
19
1H
1C
1'
b1 ,
#140000
1<
b1010 #
0;
1U
0a
1R
0[
0\
08
09
0T
1E
0H
0O
0G
0C
01
12
0'
b110 &
b110 +
b0 ,
b1010 (
#141000
b1011 #
1=
1I
1F
0E
1G
1'
b1 ,
#142000
11
0'
b111 &
b111 +
b0 ,
b1011 (
#143000
0<
1;
0U
1a
0R
1[
1\
b1100 #
0=
18
0I
1T
0F
1O
19
1H
1C
1'
b1 ,
#144000
1^
07
0<
0`
1:
0U
0Z
1m
1Q
0R
0_
1j
0S
08
b1100 #
1;
0$
09
0T
1a
0l
1E
0H
0O
0[
0\
0g
0G
0C
01
02
03
14
0'
b1000 &
b1000 +
b0 ,
b1100 (
#145000
b1101 #
1=
1I
1F
0E
1G
1'
b1 ,
#146000
11
0'
b1001 &
b1001 +
b0 ,
b1101 (
#147000
1<
1U
b1110 #
0=
1R
0I
0Q
0F
1S
19
1H
1C
1'
b1 ,
#148000
1:
1m
1j
1;
0$
1a
0l
1^
0g
07
b1110 #
1<
0`
1U
0Z
1R
0_
08
09
0T
1E
0H
0O
0G
0C
01
12
0'
b1010 &
b1010 +
b0 ,
b1110 (
#149000
b1111 #
1=
1I
1F
0E
1G
1'
b1 ,
#150000
11
0'
b1011 &
b1011 +
b0 ,
b1111 (
#151000
0:
0m
0j
0;
1$
0a
1l
0^
1g
17
0<
1`
0U
1Z
0R
1_
b0 #
0=
18
0I
1T
0F
1O
19
1H
1C
1'
b1 ,
#152000
0<
0U
1Q
0R
0S
08
b0 #
0;
09
0T
0a
1E
0H
0O
0[
0\
0G
0C
01
02
13
0'
b1100 &
b1100 +
b0 ,
b10000 (
#153000
b1 #
1=
1I
1F
0E
1G
1'
b1 ,
#154000
11
0'
b1101 &
b1101 +
b0 ,
b10001 (
#155000
1<
1U
b10 #
0=
1R
0I
0Q
0F
1S
19
1H
1C
1'
b1 ,
#156000
1<
b10 #
0;
1U
0a
1R
0[
0\
08
09
0T
1E
0H
0O
0G
0C
01
12
0'
b1110 &
b1110 +
b0 ,
b10010 (
#157000
b11 #
1=
1I
1F
0E
1G
1'
b1 ,
#158000
11
0'
b1111 &
b1111 +
b0 ,
b10011 (
#159000
0<
1;
0U
1a
0R
1[
1\
b100 #
0=
18
0I
1T
0F
1O
19
1H
1C
1'
b1 ,
#160000
1i
1^
0k
07
0<
0`
0:
1=
0U
0Z
0m
1I
1Q
0R
0_
0j
1F
0S
08
b101 #
1;
0$
09
0T
1a
0l
0H
0O
0[
0\
0g
0G
0C
01
02
03
04
1-
0'
b0 &
b101 %
b101 *
b0 +
b0 ,
b10100 (
#161000
1<
1U
b110 #
0=
1R
0I
0Q
0F
1S
19
1H
1B
1G
1'
b1 ,
b101 (
#162000
11
0'
b1 &
b1 +
b0 ,
b110 (
#163000
b111 #
1=
1I
1C
1D
1'
b1 ,
#164000
0:
0m
1;
0j
1a
1i
1^
0k
07
1<
0`
1U
0Z
1F
1R
0_
09
08
0H
b111 #
1=
0T
0B
1I
0O
0G
0C
0D
01
12
0'
b10 &
b10 +
b0 ,
b111 (
#165000
1:
1m
0;
1j
0a
0i
0^
1k
17
0<
1`
0U
1Z
0R
1_
b1000 #
0=
18
0I
1T
0F
1O
19
1H
1B
1G
1'
b1 ,
#166000
11
0'
b11 &
b11 +
b0 ,
b1000 (
#167000
b1001 #
1=
1I
1C
1D
1'
b1 ,
#168000
0<
1Q
0U
1F
0S
0R
09
08
0;
0H
b1001 #
1=
0T
0a
0B
1I
0O
0[
0\
0G
0C
0D
01
02
13
0'
b100 &
b100 +
b0 ,
b1001 (
#169000
1<
1U
b1010 #
0=
1R
0I
0Q
0F
1S
19
1H
1B
1G
1'
b1 ,
#170000
11
0'
b101 &
b101 +
b0 ,
b1010 (
#171000
b1011 #
1=
1I
1C
1D
1'
b1 ,
#172000
1<
0;
1U
0a
1F
1R
0[
0\
09
08
0H
b1011 #
1=
0T
0B
1I
0O
0G
0C
0D
01
12
0'
b110 &
b110 +
b0 ,
b1011 (
#173000
0<
1;
0U
1a
0R
1[
1\
b1100 #
0=
18
0I
1T
0F
1O
19
1H
1B
1G
1'
b1 ,
#174000
11
0'
b111 &
b111 +
b0 ,
b1100 (
#175000
b1101 #
1=
1I
1C
1D
1'
b1 ,
#176000
1^
07
0<
0`
1:
1Q
0U
0Z
1m
1F
0S
0R
0_
1j
09
08
1;
0$
0H
b1101 #
1=
0T
1a
0l
0B
1I
0O
0[
0\
0g
0G
0C
0D
01
02
03
14
0'
b1000 &
b1000 +
b0 ,
b1101 (
#177000
1<
1U
b1110 #
0=
1R
0I
0Q
0F
1S
19
1H
1B
1G
1'
b1 ,
#178000
11
0'
b1001 &
b1001 +
b0 ,
b1110 (
#179000
b1111 #
1=
1I
1C
1D
1'
b1 ,
#180000
1:
1m
1j
1;
0$
1a
0l
1^
0g
07
1<
0`
1U
0Z
1F
1R
0_
09
08
0H
b1111 #
1=
0T
0B
1I
0O
0G
0C
0D
01
12
0'
b1010 &
b1010 +
b0 ,
b1111 (
#181000
0:
0m
0j
0;
1$
0a
1l
0^
1g
17
0<
1`
0U
1Z
0R
1_
b0 #
0=
18
0I
1T
0F
1O
19
1H
1B
1G
1'
b1 ,
#182000
11
0'
b1011 &
b1011 +
b0 ,
b10000 (
#183000
b1 #
1=
1I
1C
1D
1'
b1 ,
#184000
0<
1Q
0U
1F
0S
0R
09
08
0;
0H
b1 #
1=
0T
0a
0B
1I
0O
0[
0\
0G
0C
0D
01
02
13
0'
b1100 &
b1100 +
b0 ,
b10001 (
#185000
1<
1U
b10 #
0=
1R
0I
0Q
0F
1S
19
1H
1B
1G
1'
b1 ,
#186000
11
0'
b1101 &
b1101 +
b0 ,
b10010 (
#187000
b11 #
1=
1I
1C
1D
1'
b1 ,
#188000
1<
0;
1U
0a
1F
1R
0[
0\
09
08
0H
b11 #
1=
0T
0B
1I
0O
0G
0C
0D
01
12
0'
b1110 &
b1110 +
b0 ,
b10011 (
#189000
0<
1;
0U
1a
0R
1[
1\
b100 #
0=
18
0I
1T
0F
1O
19
1H
1B
1G
1'
b1 ,
#190000
11
0'
b1111 &
b1111 +
b0 ,
b10100 (
#191000
b101 #
1=
1I
1C
1D
1'
b1 ,
#192000
1i
1^
0k
07
1<
0`
1U
0Z
1R
0_
08
0:
0T
0m
0j
0S
1;
0$
09
b110 #
0=
1a
0l
0H
0I
0O
0[
0\
0g
0B
1E
0N
0G
0C
0D
01
02
03
04
0-
1.
0'
b0 &
b110 %
b110 *
b0 +
b0 ,
b10101 (
#193000
b111 #
1=
1I
1F
0E
1G
1'
b1 ,
b110 (
#194000
11
0'
b1 &
b1 +
b0 ,
b111 (
#195000
1:
1m
0;
1j
0a
0i
0^
1k
17
0<
1`
0U
1Z
0R
1_
18
b1000 #
0=
1T
0I
1N
0F
1S
19
1H
1C
1'
b1 ,
#196000
b1000 #
0<
09
0U
1E
0H
0O
0P
0G
0C
01
12
0'
b10 &
b10 +
b0 ,
b1000 (
#197000
b1001 #
1=
1I
1F
0E
1G
1'
b1 ,
#198000
11
0'
b11 &
b11 +
b0 ,
b1001 (
#199000
0=
b1010 #
1<
0I
1U
0F
1O
1P
19
1H
1C
1'
b1 ,
#200000
1R
08
0T
0N
0S
1<
b1010 #
0;
09
1U
0a
1E
0H
0O
0P
0[
0\
0G
0C
01
02
13
0'
b100 &
b100 +
b0 ,
b1010 (
#201000
b1011 #
1=
1I
1F
0E
1G
1'
b1 ,
#202000
11
0'
b101 &
b101 +
b0 ,
b1011 (
#203000
0<
1;
0U
1a
0R
1[
1\
18
b1100 #
0=
1T
0I
1N
0F
1S
19
1H
1C
1'
b1 ,
#204000
b1100 #
0<
09
0U
1E
0H
0O
0P
0G
0C
01
12
0'
b110 &
b110 +
b0 ,
b1100 (
#205000
b1101 #
1=
1I
1F
0E
1G
1'
b1 ,
#206000
11
0'
b111 &
b111 +
b0 ,
b1101 (
#207000
0=
b1110 #
1<
0I
1U
0F
1O
1P
19
1H
1C
1'
b1 ,
#208000
1^
07
0`
0Z
1R
0_
08
1:
0T
1m
0N
1j
0S
1<
b1110 #
1;
0$
09
1U
1a
0l
1E
0H
0O
0P
0[
0\
0g
0G
0C
01
02
03
14
0'
b1000 &
b1000 +
b0 ,
b1110 (
#209000
b1111 #
1=
1I
1F
0E
1G
1'
b1 ,
#210000
11
0'
b1001 &
b1001 +
b0 ,
b1111 (
#211000
0:
0m
0j
0;
1$
0a
1l
0^
1g
17
0<
1`
0U
1Z
0R
1_
18
b0 #
0=
1T
0I
1N
0F
1S
19
1H
1C
1'
b1 ,
#212000
b0 #
0<
09
0U
1E
0H
0O
0P
0G
0C
01
12
0'
b1010 &
b1010 +
b0 ,
b10000 (
#213000
b1 #
1=
1I
1F
0E
1G
1'
b1 ,
#214000
11
0'
b1011 &
b1011 +
b0 ,
b10001 (
#215000
0=
b10 #
1<
0I
1U
0F
1O
1P
19
1H
1C
1'
b1 ,
#216000
1R
08
0T
0N
0S
1<
b10 #
0;
09
1U
0a
1E
0H
0O
0P
0[
0\
0G
0C
01
02
13
0'
b1100 &
b1100 +
b0 ,
b10010 (
#217000
b11 #
1=
1I
1F
0E
1G
1'
b1 ,
#218000
11
0'
b1101 &
b1101 +
b0 ,
b10011 (
#219000
0<
1;
0U
1a
0R
1[
1\
18
b100 #
0=
1T
0I
1N
0F
1S
19
1H
1C
1'
b1 ,
#220000
b100 #
0<
09
0U
1E
0H
0O
0P
0G
0C
01
12
0'
b1110 &
b1110 +
b0 ,
b10100 (
#221000
b101 #
1=
1I
1F
0E
1G
1'
b1 ,
